################################################################################
# Syntax Coloring Map For arduino-ds2406
################################################################################

################################################################################
# Datatypes (KEYWORD1)
################################################################################
DS2406								KEYWORD1


################################################################################
# Methods and Functions (KEYWORD2)
################################################################################
readPioState						KEYWORD2
writePioState						KEYWORD2


################################################################################
# Instances (KEYWORD2)
################################################################################


################################################################################
# Constants (LITERAL1)
################################################################################
